Customizing plots
…
but it is instructive to know how to combine the outputs of draw() should the need arise, such as when you want to create a patchwork of plots from different models.

Building your own plot by hand

{gratia} provides high-level functions like draw() to get you a good graphical overview of a fitted model, but with little option for customisation — it isn’t possible or desirable to allow all possible customisation options and fatures of {ggplot2} through a single function. Think about how many arguments that would require!

Instead, {gratia} also exports the lower-level functions used draw() so that you can create your own plot using whatever {ggplot2} functions make sense. In the next few code blocks we’ll see how the plot created by draw(m) can be recreated by hand using these lower-level building blocks.

The main thing we need is to evaluate the smooths at values of their covariates. This is done using smooth_estimates(). We also need to add a credible interval to the evaluations, which can be done tidyverse-style via add_confint()

# evaluate the smooths
sm <- smooth_estimates(m) %>%
  add_confint()
sm
#> # A tibble: 400 × 11
#>    smooth type  by       est    se     x0    x1    x2    x3 lower_ci upper_ci
#>    <chr>  <chr> <chr>  <dbl> <dbl>  <dbl> <dbl> <dbl> <dbl>    <dbl>    <dbl>
#>  1 s(x0)  TPRS  <NA>  -0.929 0.422 0.0131    NA    NA    NA   -1.76   -0.102 
#>  2 s(x0)  TPRS  <NA>  -0.881 0.396 0.0230    NA    NA    NA   -1.66   -0.104 
#>  3 s(x0)  TPRS  <NA>  -0.834 0.372 0.0329    NA    NA    NA   -1.56   -0.105 
#>  4 s(x0)  TPRS  <NA>  -0.786 0.348 0.0429    NA    NA    NA   -1.47   -0.103 
#>  5 s(x0)  TPRS  <NA>  -0.738 0.326 0.0528    NA    NA    NA   -1.38   -0.0992
#>  6 s(x0)  TPRS  <NA>  -0.690 0.305 0.0627    NA    NA    NA   -1.29   -0.0918
#>  7 s(x0)  TPRS  <NA>  -0.643 0.287 0.0727    NA    NA    NA   -1.20   -0.0809
#>  8 s(x0)  TPRS  <NA>  -0.595 0.270 0.0826    NA    NA    NA   -1.12   -0.0665
#>  9 s(x0)  TPRS  <NA>  -0.548 0.255 0.0925    NA    NA    NA   -1.05   -0.0483
#> 10 s(x0)  TPRS  <NA>  -0.501 0.242 0.102     NA    NA    NA   -0.975  -0.0266
#> # … with 390 more rows
…
